1 Introduction to Multivariate Data – Introduction to Multivariate Data Analysis
…
Filter all the observations in Greenville in August 2021 and select the variables PM2.5 concentrations, Date, latitude and longitude of sites

Generate scatterplots of PM2.5 against latitude and longitude in two different panels

View Solution

Code

library(dplyr)

df %>%
  filter(COUNTY == "Greenville")

# A tibble: 937 × 20
   Date       Source `Site ID`   POC PM2.5 UNITS    DAILY_AQI_VALUE `Site Name` 
   <chr>      <chr>      <dbl> <dbl> <dbl> <chr>              <dbl> <chr>       
 1 01/01/2021 AQS    450450015     1   6.3 ug/m3 LC              26 Greenville …
 2 01/02/2021 AQS    450450015     1   6.6 ug/m3 LC              28 Greenville …
 3 01/03/2021 AQS    450450015     1   5.4 ug/m3 LC              23 Greenville …
 4 01/05/2021 AQS    450450015     1   7.4 ug/m3 LC              31 Greenville …
 5 01/06/2021 AQS    450450015     1   7.7 ug/m3 LC              32 Greenville …
 6 01/07/2021 AQS    450450015     1   9.5 ug/m3 LC              40 Greenville …
 7 01/08/2021 AQS    450450015     1   7.5 ug/m3 LC              31 Greenville …
 8 01/09/2021 AQS    450450015     1   5.3 ug/m3 LC              22 Greenville …
 9 01/10/2021 AQS    450450015     1  12.1 ug/m3 LC              51 Greenville …
10 01/11/2021 AQS    450450015     1  16.7 ug/m3 LC              61 Greenville …
# ℹ 927 more rows
# ℹ 12 more variables: DAILY_OBS_COUNT <dbl>, PERCENT_COMPLETE <dbl>,
#   AQS_PARAMETER_CODE <dbl>, AQS_PARAMETER_DESC <chr>, CBSA_CODE <dbl>,
#   CBSA_NAME <chr>, STATE_CODE <dbl>, STATE <chr>, COUNTY_CODE <chr>,
#   COUNTY <chr>, SITE_LATITUDE <dbl>, SITE_LONGITUDE <dbl>

Code

df %>%
  mutate(Date = mdy(Date), YM = format_ISO8601(Date, precision = "ym")) %>%
  filter(COUNTY == "Greenville", YM == "2021-08")

# A tibble: 82 × 21
   Date       Source `Site ID`   POC PM2.5 UNITS    DAILY_AQI_VALUE `Site Name` 
   <date>     <chr>      <dbl> <dbl> <dbl> <chr>              <dbl> <chr>       
 1 2021-08-01 AQS    450450015     1  13.8 ug/m3 LC              55 Greenville …
 2 2021-08-02 AQS    450450015     1  19   ug/m3 LC              66 Greenville …
 3 2021-08-03 AQS    450450015     1  16.9 ug/m3 LC              61 Greenville …
 4 2021-08-04 AQS    450450015     1  15.6 ug/m3 LC              58 Greenville …
 5 2021-08-05 AQS    450450015     1  11   ug/m3 LC              46 Greenville …
 6 2021-08-06 AQS    450450015     1  10.3 ug/m3 LC              43 Greenville …
 7 2021-08-07 AQS    450450015     1   9.7 ug/m3 LC              40 Greenville …
 8 2021-08-08 AQS    450450015     1  10   ug/m3 LC              42 Greenville …
 9 2021-08-09 AQS    450450015     1  12   ug/m3 LC              50 Greenville …
10 2021-08-10 AQS    450450015     1  12.5 ug/m3 LC              52 Greenville …
# ℹ 72 more rows
# ℹ 13 more variables: DAILY_OBS_COUNT <dbl>, PERCENT_COMPLETE <dbl>,
#   AQS_PARAMETER_CODE <dbl>, AQS_PARAMETER_DESC <chr>, CBSA_CODE <dbl>,
#   CBSA_NAME <chr>, STATE_CODE <dbl>, STATE <chr>, COUNTY_CODE <chr>,
#   COUNTY <chr>, SITE_LATITUDE <dbl>, SITE_LONGITUDE <dbl>, YM <chr>

Code

df %>%
  mutate(Date = mdy(Date), YM = format_ISO8601(Date, precision = "ym")) %>%
  filter(COUNTY == "Greenville", YM == "2021-08") %>%
  dplyr::select(PM2.5, Date, SITE_LATITUDE, SITE_LONGITUDE)

# A tibble: 82 × 4
   PM2.5 Date       SITE_LATITUDE SITE_LONGITUDE
   <dbl> <date>             <dbl>          <dbl>
 1  13.8 2021-08-01          34.8          -82.4
 2  19   2021-08-02          34.8          -82.4
 3  16.9 2021-08-03          34.8          -82.4
 4  15.6 2021-08-04          34.8          -82.4
 5  11   2021-08-05          34.8          -82.4
 6  10.3 2021-08-06          34.8          -82.4
 7   9.7 2021-08-07          34.8          -82.4
 8  10   2021-08-08          34.8          -82.4
 9  12   2021-08-09          34.8          -82.4
10  12.5 2021-08-10          34.8          -82.4
# ℹ 72 more rows
…
